<?xml version="1.0" encoding="UTF-8"?>
<svg width="17px" height="17px" viewBox="0 0 17 17" version="1.1" xmlns="http://www.w3.org/2000/svg" xmlns:xlink="http://www.w3.org/1999/xlink">
    <!-- Generator: Sketch 58 (84663) - https://sketch.com -->
    <title>tel</title>
    <desc>Created with Sketch.</desc>
    <g id="Page-1" stroke="none" stroke-width="1" fill="none" fill-rule="evenodd" stroke-linecap="round" stroke-linejoin="bevel">
        <g id="Home-02" transform="translate(-239.000000, -86.000000)" stroke="#12BFBB" stroke-width="1.189">
            <g id="Header">
                <g id="Menu" transform="translate(223.000000, 75.000000)">
                    <path d="M31.3497936,23.6698757 L28.451626,20.7196866 C28.091084,20.35283 27.5062183,20.35283 27.1456764,20.7196866 L25.9055806,21.9820344 C25.6854666,22.2063582 25.3691279,22.3022822 25.0642159,22.2376312 L24.9824249,22.2201905 C23.2437649,21.8518303 21.8948149,20.4532645 21.5643432,18.6770167 C21.5075105,18.371804 21.6025324,18.0572695 21.8187373,17.8374562 L23.0786794,16.5549614 C23.439522,16.1878041 23.439522,15.5927145 23.0786794,15.2255571 L20.1805118,12.275368 C19.8199699,11.9082107 19.2351041,11.9082107 18.8745622,12.275368 C16.1369696,15.0012333 16.374825,19.9571059 19.7396824,23.4590835 C23.1045398,26.9610611 28.6119002,27.7251453 31.3497936,24.9992801 C31.7103355,24.6321227 31.7103355,24.0370331 31.3497936,23.6698757 Z" id="tel"></path>
                </g>
            </g>
        </g>
    </g>
</svg>