<?xml version="1.0" encoding="UTF-8"?>
<svg width="22px" height="21px" viewBox="0 0 22 21" version="1.1" xmlns="http://www.w3.org/2000/svg" xmlns:xlink="http://www.w3.org/1999/xlink">
    <!-- Generator: Sketch 58 (84663) - https://sketch.com -->
    <title>icon</title>
    <desc>Created with Sketch.</desc>
    <g id="Page-1" stroke="none" stroke-width="1" fill="none" fill-rule="evenodd" stroke-linecap="round" stroke-linejoin="round">
        <g id="Home-02" transform="translate(-32.000000, -1980.000000)" stroke="#FFFFFF" stroke-width="0.814">
            <g id="Contactez-nous" transform="translate(0.000000, 1755.000000)">
                <g id="Group-CTA" transform="translate(26.000000, 141.000000)">
                    <g id="Conseiller" transform="translate(0.000000, 67.000000)">
                        <g id="icon" transform="translate(7.000000, 18.000000)">
                            <polyline id="Stroke-1" points="11.31668 3.5388 11.31668 0.3628 3.92508 0.3628 3.92508 5.9516 5.72788 5.9516 5.72788 7.5744 7.32028 5.9516 9.44468 5.9516"></polyline>
                            <polygon id="Stroke-3" points="13.47956 7.57376 13.47956 9.29536 11.46236 7.57376 9.44476 7.57376 9.44476 3.53896 14.82476 3.53896 14.82476 7.57376"></polygon>
                            <g id="Group-12" transform="translate(0.000000, 9.297000)">
                                <path d="M6.92056,2.71584 C6.92056,4.05064 5.83816,5.13304 4.50336,5.13304 C3.16816,5.13304 2.08576,4.05064 2.08576,2.71584 C2.08576,1.38104 3.16816,0.29864 4.50336,0.29864 C5.83816,0.29864 6.92056,1.38104 6.92056,2.71584 Z" id="Stroke-4"></path>
                                <path d="M5.22368,6.18516 L3.78248,6.18516 C1.89408,6.18516 0.36288,7.71636 0.36288,9.60516 L8.64368,9.60516 C8.64368,7.71636 7.11248,6.18516 5.22368,6.18516 Z" id="Stroke-6"></path>
                                <path d="M18.05728,2.74788 C18.05728,4.08308 16.97488,5.16508 15.64008,5.16508 C14.30488,5.16508 13.22248,4.08308 13.22248,2.74788 C13.22248,1.41308 14.30488,0.33068 15.64008,0.33068 C16.97488,0.33068 18.05728,1.41308 18.05728,2.74788 Z" id="Stroke-8"></path>
                                <path d="M16.3604,6.2174 L14.9192,6.2174 C13.0308,6.2174 11.4996,7.7486 11.4996,9.6374 L19.7804,9.6374 C19.7804,7.7486 18.2496,6.2174 16.3604,6.2174 Z" id="Stroke-10"></path>
                            </g>
                        </g>
                    </g>
                </g>
            </g>
        </g>
    </g>
</svg>